{
  "id" : "30ec6b4f-8414-4566-87d7-4d99ec70b7e1",
  "request" : {
    "url" : "/candidate-gateway/management/v1/default-flows",
    "method" : "POST",
    "headers" : {
      "Content-Type" : {
        "matches" : "application/json.*"
      }
    },
    "bodyPatterns" : [ {
      "matchesJsonPath" : "$[?(@.vacancyId =~ /([0-9]+)/)]"
    }, {
      "matchesJsonPath" : "$[?(@.companyId =~ /(231)/)]"
    }, {
      "matchesJsonPath" : "$[?(@.publisherId =~ /(11)/)]"
    } ]
  },
  "response" : {
    "status" : 201,
    "body" : "{\"data\":[{\"vacancyId\":\"{{{jsonPath request.body 'vacancyId'}}}\",\"flow\":{\"id\":9000,\"name\":\"Default vacancy-apply flow\",\"flowTypeSlug\":\"vacancy-apply\"}},{\"vacancyId\":\"{{{jsonPath request.body 'vacancyId'}}}\",\"flow\":{\"id\":9001,\"name\":\"Default contact-form flow\",\"flowTypeSlug\":\"contact-form\"}}]}",
    "headers" : {
      "Content-Type" : "application/json"
    },
    "transformers" : [ "response-template", "spring-cloud-contract" ]
  },
  "uuid" : "30ec6b4f-8414-4566-87d7-4d99ec70b7e1"
}
