{
  "id" : "51e79f26-971f-48b9-aabc-7e3f8e7d1818",
  "request" : {
    "urlPattern" : "\\/management\\/v1\\/sites\\/(?!bad\\-slug\\-\\d+)[\\d\\w\\-]+",
    "method" : "GET"
  },
  "response" : {
    "status" : 200,
    "body" : "{\"data\":{\"id\":-956304398,\"siteSlug\":\"{{{request.path.[3]}}}\",\"name\":\"RBJEQJGMUIXPKWVZWQVD\",\"fromEmail\":\"foo@bar-1726462716.com\",\"active\":true,\"daysExpiredVacancyVisible\":281169664}}",
    "headers" : {
      "Content-Type" : "application/json"
    },
    "transformers" : [ "response-template", "spring-cloud-contract" ]
  },
  "uuid" : "51e79f26-971f-48b9-aabc-7e3f8e7d1818"
}
